Name,BirthYear,BodyweightKg,Squat1Kg,Squat2Kg,Squat3Kg,Best3SquatKg,Bench1Kg,Bench2Kg,Bench3Kg,Best3BenchKg,Deadlift1Kg,Deadlift2Kg,Deadlift3Kg,Best3DeadliftKg,TotalKg,Division,Sex,WeightClassKg,Team,Place,BirthDate,Equipment,Event
Martin Valenta,2002,147.2,285,300,310,310,170,180,190,190,285,300,312.5,312.5,812.5,Open,M,,"doplnejch powerlifting - ""c""",1,,Raw,SBD
Artem Usov,2000,140.2,285,300,,300,180,190,,190,270,280,,280,770,Open,M,,"doplnejch powerlifting - ""c""",1,,Raw,SBD
Marek Pojezný,1994,114.1,230,242.5,252.5,252.5,160,167.5,172.5,172.5,245,260,-275,260,685,Open,M,,"doplnejch powerlifting - ""c""",1,,Raw,SBD
Lars Lukeš,1999,90.55,220,232.5,240,240,147.5,-152.5,-152.5,147.5,270,285,-295,285,672.5,Open,M,,"doplnejch powerlifting - ""c""",1,,Raw,SBD
Martin Prokop,1999,115,240,250,255,255,170,180,193,193,220,235,252.5,252.5,700.5,Open,M,,"doplnejch powerlifting - ""d""",2,,Raw,SBD
Michael Křížek,2001,116.7,217.5,-225,225,225,157.5,165,-172.5,165,265,-282.5,290,290,680,Open,M,,"doplnejch powerlifting - ""d""",2,,Raw,SBD
Pavel Kurek,2000,103.6,230,240,-245,240,135,147.5,-152.5,147.5,232.5,242.5,-250,242.5,630,Open,M,,"doplnejch powerlifting - ""d""",2,,Raw,SBD
Lenka Strolená,1984,59.9,110,115,120,120,70,75,77.5,77.5,130,140,150,150,347.5,Open,F,,"doplnejch powerlifting - ""d""",2,,Raw,SBD
Marek Jiřík,2001,102.3,210,220,225,225,130,135,-140,135,245,255,-265,255,615,Open,M,,pwl gladiators,3,,Raw,SBD
Tomáš Merhout,2000,92.4,200,210,215,215,122.5,-127.5,-127.5,122.5,-270,270,,270,607.5,Open,M,,pwl gladiators,3,,Raw,SBD
Veronika Břízová,1989,87,150,155,160,160,80,82.5,85,85,190,200,210,210,455,Open,F,,pwl gladiators,3,,Raw,SBD
Eliška Svítilová,1996,62.85,97.5,105,-110,105,50,52.5,-55,52.5,140,150,-155,150,307.5,Open,F,,pwl gladiators,3,,Raw,SBD
Milan Špingl,1980,140.2,280,300,315,315,175,185,192.5,192.5,265,280,292.5,292.5,800,Open,M,,"powerlifting school - ""a""",4,,Raw,SBD
Robert Černovský,1978,108.7,185,195,200,200,130,137.5,-142.5,137.5,200,215,222.5,222.5,560,Open,M,,"powerlifting school - ""a""",4,,Raw,SBD
Anna Pilská,1999,57.65,117.5,122.5,125,125,75,77.5,80,80,125,132.5,-137.5,132.5,337.5,Open,F,,"powerlifting school - ""a""",4,,Raw,SBD
Lucie Charvátová,2001,66.55,90,102.5,110,110,40,50,60,60,90,105,115,115,285,Open,F,,"powerlifting school - ""a""",4,,Raw,SBD
Kryštof Veber,1993,96.4,180,195,205,205,110,120,130,130,230,250,265,265,600,Open,M,,"doplnejch powerlifting - ""e""",5,,Raw,SBD
Jakub Straka,2002,74.2,-170,170,180,180,105,115,-120,115,205,217.5,-222.5,217.5,512.5,Open,M,,"doplnejch powerlifting - ""e""",5,,Raw,SBD
Lukáš Papírník,1996,78.2,162.5,172.5,180,180,107.5,112.5,115,115,197.5,207.5,215,215,510,Open,M,,"doplnejch powerlifting - ""e""",5,,Raw,SBD
Jessica Medwell,2001,68.3,132.5,137.5,-142.5,137.5,52.5,-57.5,-57.5,52.5,142.5,150,155,155,345,Open,F,,"doplnejch powerlifting - ""e""",5,,Raw,SBD
Antonín Coufal,1973,146.7,232.5,242.5,252.5,252.5,167.5,177.5,-182.5,177.5,237.5,250,-260,250,680,Open,M,,"tj sokol vejprnice - ""b""",6,,Raw,SBD
Robert Sporka,2001,82.35,190,-205,205,205,130,135,-137.5,135,205,215,220,220,560,Open,M,,"tj sokol vejprnice - ""b""",6,,Raw,SBD
Petr Krákora,1973,92.9,170,177.5,182.5,182.5,112.5,117.5,122.5,122.5,220,230,-235,230,535,Open,M,,"tj sokol vejprnice - ""b""",6,,Raw,SBD
Eliška Trnková,2000,74.85,90,105,120,120,50,62.5,-72.5,62.5,130,145,155,155,337.5,Open,F,,"tj sokol vejprnice - ""b""",6,,Raw,SBD
Jiří Psota,1962,106.3,180,195,205,205,140,150,160,160,200,220,240,240,605,Open,M,,"sporting apis praha - ""b""",7,,Raw,SBD
Viktor Hubáček,2004,82.25,170,180,190,190,137.5,145,147.5,147.5,207.5,220,232.5,232.5,570,Open,M,,"sporting apis praha - ""b""",7,,Raw,SBD
František Dvořák,2002,93.65,202.5,212.5,220,220,92.5,100,-107.5,100,215,225,-235,225,545,Open,M,,"sporting apis praha - ""b""",7,,Raw,SBD
Markéta Lukešová,1997,71.05,105,112.5,120,120,50,57.5,62.5,62.5,110,120,130,130,312.5,Open,M,,"sporting apis praha - ""b""",7,,Raw,SBD
Ladislav Burian,1988,146.1,210,220,230,230,155,160,162.5,162.5,240,260,-270,260,652.5,Open,M,,"doplnejch powerlifting - ""f""",8,,Raw,SBD
Dominik Vála,1990,98.05,195,205,-215,205,100,-107.5,112.5,112.5,190,205,220,220,537.5,Open,M,,"doplnejch powerlifting - ""f""",8,,Raw,SBD
Jakub Novotný,2002,73.15,155,165,-170,165,130,-135,-135,130,180,-190,-190,180,475,Open,M,,"doplnejch powerlifting - ""f""",8,,Raw,SBD
Valentýna Štáchová,2003,52.8,95,102.5,107.5,107.5,35,40,-45,40,115,122.5,-127.5,122.5,270,Open,F,,"doplnejch powerlifting - ""f""",8,,Raw,SBD
Pavel Kastl,1998,85.85,-190,190,212.5,212.5,120,130,-137.5,130,220,240,255,255,597.5,Open,M,,"tj sokol vejprnice ""c""",9,,Raw,SBD
Tomáš Sladký,2004,73.15,150,162.5,172.5,172.5,95,102.5,107.5,107.5,180,190,200,200,480,Open,M,,"tj sokol vejprnice ""c""",9,,Raw,SBD
David Schill,1987,93,137.5,147.5,150,150,80,87.5,90,90,167.5,187.5,-200,187.5,427.5,Open,M,,"tj sokol vejprnice ""c""",9,,Raw,SBD
Jiří Studeník,2004,86.95,130,145,155,155,70,80,90,90,150,160,170,170,415,Open,M,,"tj sokol vejprnice ""c""",9,,Raw,SBD
Miroslav Buberle,1989,101.4,192.5,200,,200,142.5,150,155,155,195,205,,205,560,Open,M,,skst litvínov,10,,Raw,SBD
Július Čmerda,1973,91.2,160,170,177.5,177.5,115,122.5,125,125,200,210,217.5,217.5,520,Open,M,,skst litvínov,10,,Raw,SBD
Jaroslav Oulehle,1981,103.4,170,180,-187.5,180,130,135,140,140,180,192.5,200,200,520,Open,M,,skst litvínov,10,,Raw,SBD
Petr Zamazal,1956,107.4,155,162.5,-170,162.5,80,92.5,97.5,97.5,200,212.5,-217.5,212.5,472.5,Open,M,,skst litvínov,10,,Raw,SBD
Martin Ürban,1995,95.4,225,235,245,245,145,150,152.5,152.5,245,255,265,265,662.5,Open,M,,powerlifting jihlava,11,,Raw,SBD
Jiří Veverka,2001,97.45,150,160,-170,160,110,120,-130,120,180,190,200,200,480,Open,M,,powerlifting jihlava,11,,Raw,SBD
Jitka Frühbauerová,1999,77.2,115,122.5,130,130,52.5,57.5,65,65,120,132.5,140,140,335,Open,F,,powerlifting jihlava,11,,Raw,SBD
Josefa Švecová,2003,59.45,55,62.5,70,70,30,35,37.5,37.5,70,80,85,85,192.5,Open,F,,powerlifting jihlava,11,,Raw,SBD
Vojtěch Lakomý,2001,94.55,180,190,-200,190,100,110,-117.5,110,200,220,240,240,540,Open,M,,"sportovní klub zlobr - ""c""",12,,Raw,SBD
Filip Černý,2003,98.1,155,170,-180,170,115,117.5,122.5,122.5,-190,190,220,220,512.5,Open,M,,"sportovní klub zlobr - ""c""",12,,Raw,SBD
Jan Klimus,1987,99.5,130,140,150,150,110,120,-125,120,170,180,190,190,460,Open,M,,"sportovní klub zlobr - ""c""",12,,Raw,SBD
Filip Nesvadba,2001,69.3,100,110,120,120,70,-85,-95,70,120,135,155,155,345,Open,M,,"sportovní klub zlobr - ""c""",12,,Raw,SBD
Šimon Král,2002,120.3,235,252.5,-257.5,252.5,135,145,150,150,240,260,267.5,267.5,670,Open,M,,"tj sokol vejprnice - ""a""",13,,Raw,SBD
Tomáš Koudela,1999,75.3,155,160,170,170,97.5,100,105,105,205,215,217.5,217.5,492.5,Open,M,,"tj sokol vejprnice - ""a""",13,,Raw,SBD
Josef Sladký,2001,102.8,210,-220,,210,145,150,155,155,-100,100,,100,465,Open,M,,"tj sokol vejprnice - ""a""",13,,Raw,SBD
Jaroslav Šoukal,1972,173.6,100,,,100,100,,,100,100,,,100,300,Open,M,,"tj sokol vejprnice - ""a""",13,,Raw,SBD
Jan Janich,1999,77.75,100,110,120,120,95,102.5,-107.5,102.5,150,165,180,180,402.5,Open,M,,"sportovní klub zlobr - ""d""",14,,Raw,SBD
Ondřej Halbych,2000,86.9,105,115,130,130,90,100,105,105,145,155,-170,155,390,Open,M,,"sportovní klub zlobr - ""d""",14,,Raw,SBD
Kateřina Šupíková,1999,55.8,75,85,-92.5,85,45,50,-55,50,105,-115,115,115,250,Open,F,,"sportovní klub zlobr - ""d""",14,,Raw,SBD
Veronika Cyrany,2005,70.85,50,65,85,85,35,45,-55,45,90,-110,115,115,245,Open,F,,"sportovní klub zlobr - ""d""",14,,Raw,SBD
