Name,Age,Sex,Division,Equipment,BodyweightKg,WeightClassKg,Bench1Kg,Bench2Kg,Bench3Kg,Bench4Kg,Best3BenchKg,Deadlift1Kg,Deadlift2Kg,Deadlift3Kg,Deadlift4Kg,Best3DeadliftKg,TotalKg,Event,BirthDate,Place
Shanice Hughes,32,F,F-O,Raw,120.4,110+,-60,65,-70,,65,110,120,130,,130,195,BD,,1
Gemma Lucas,39,F,F-O,Raw,73.2,75,,,,,,135,145,-150,,145,145,D,,2
Olivia Knowles,27,F,F-O,Raw,87.7,90,60,65,70,,70,140,155,-170,,155,225,BD,,2
Chanelle Collier,30,F,F-O,Raw,70.05,75,,,,,,155,175,-180,,175,175,D,,1
Karolina Piwonska,32,F,F-O,Raw,82.25,82.5,80,85,-90,,85,170,180,-185,,180,265,BD,,3
Lana Thomas Hey,37,F,F-O,Raw,85.1,90,92.5,100,-105,,100,170,180,-190,,180,280,BD,,1
Steph Taylor,35,F,F-O-E,Multi-ply,65.3,67.5,137.5,145,-150,,145,-190,-190,-190,,,,BD,,DQ
Lindsay Batoryk,39,F,F-O,Raw,80.15,82.5,85,92.5,-100,,92.5,180,190,200,,200,292.5,BD,,2
Annjanette Saunders,52,F,F-O,Raw,74.6,75,90,-100,100,,100,180,190,-200,,190,290,BD,,3
Natalie O'Shea,35,F,F-O,Raw,76.5,82.5,105,112.5,117.5,,117.5,190,200,210,,210,327.5,BD,,1
Julia Mills,43,F,F-O,Raw,74.8,75,-125,125,-130,,125,205,215,-222.5,,215,340,BD,,1
Victoria Meacham,32,F,F-O,Raw,74.2,75,70,77.5,-82.5,,77.5,200,220,-225,,220,297.5,BD,,2
Steven Heaney,64,M,M-M5,Raw,88.5,90,110,115,120,-126,120,160,170,-180,,170,290,BD,,1
Dylan Pilgrim,18,M,M-T3,Raw,74.1,75,107.5,115.5,-122.5,,115.5,-160,180,-200,,180,295.5,BD,,1
Tyrone Church,36,M,M-O,Raw,73.85,75,100,105,110,,110,170,180,190,,190,300,BD,,4
Stuart Flyn,43,M,M-M1,Raw,83.8,90,90,95,102.5,,102.5,190,200,210,,210,312.5,BD,,3
Gurnaik Birring,30,M,M-O,Raw,70.8,75,117.5,127.5,132.5,,132.5,190,205,210,,210,342.5,BD,,3
George Gordon,26,M,M-O-E,Multi-ply,79.3,82.5,-160,160,-172.5,,160,200,-220,-230,,200,360,BD,,1
Callum Ashton #1,32,M,M-O,Raw,86.95,90,115,120,125,,125,210,220,-230,,220,345,BD,,3
Maxwell Oakes,33,M,M-O,Raw,80.8,82.5,115,120,127.5,,127.5,210,220,230,,230,357.5,BD,,1
Michael Moloney,44,M,M-M1,Raw,89.75,90,120,130,-140,,130,215,230,-240,,230,360,BD,,2
Peter Barlow,27,M,M-O,Raw,74.6,75,110,120,-130,,120,240,-252.5,-252.5,,240,360,BD,,2
Huw Curram,17,M,M-T2,Raw,81.3,82.5,150,160,170,,170,240,260.5,-270,,260.5,430.5,BD,,1
Sean Smith #4,35,M,M-O,Raw,74.95,75,110,117.5,122.5,,122.5,245,260,-265,,260,382.5,BD,,1
Paul Coates,43,M,M-M1,Raw,90,90,155,162.5,170,,170,257.5,275,-285,,275,445,BD,,1
Dhaivat Sadhu,34,M,M-O,Raw,89.4,90,145,155,-162.5,,155,260,272.5,-280,,272.5,427.5,BD,,2
Aakash Sadhu,30,M,M-O,Raw,89.55,90,162.5,172.5,-185,,172.5,265,275,-282.5,,275,447.5,BD,,1
Zoey Bigg,36,F,F-O,Raw,65.75,67.5,55,57.5,-60,,57.5,117.5,-120,-120,,117.5,175,BD,,2
Mari Kamali,35,F,F-O,Raw,59.95,60,60,65,70,,70,120,130,-135,,130,200,BD,,3
Abbey McKinlay,20,F,F-J,Raw,73.6,75,,,,,,125,135,142.5,,142.5,142.5,D,,1
Michelle Knight #2,41,F,F-M1,Raw,85.55,90,65,70,72.5,,72.5,132.5,142.5,150,,150,222.5,BD,,1
Mae Astbury,23,F,F-J,Raw,60.4,67.5,55,62.5,-70,,62.5,150,-160,-160,,150,212.5,BD,,1
Abi Taylor,33,F,F-O,Raw,59.9,60,65,70,72.5,,72.5,150,160,-165,,160,232.5,BD,,2
Emily Blastock,29,F,F-O,Raw,67.35,67.5,67.5,72.5,-75,,72.5,150,160,-165,,160,232.5,BD,,1
Stella Higgins,31,F,F-O,Raw,59.95,60,100,107.5,112.5,-115,112.5,160,180,-190,,180,292.5,BD,,1
Charlotte Wareing,59,F,F-M4-E,Multi-ply,92.65,110,85,90,-95,,90,192.5,-202.5,202.5,,202.5,292.5,BD,,1
Carla Torche,36,F,F-O,Raw,64.95,67.5,75,80,-85,,80,,,,,,80,B,,1
Hamed Kamali,36,M,M-O,Raw,133.15,140,,,,,,260,-275,275,,275,275,D,,3
Richard Cooling,38,M,M-O,Raw,132.05,140,125,135,142.5,,142.5,255,275,285,,285,427.5,BD,,5
Luke Reuben,32,M,M-O,Raw,133.1,140,157.5,165,172.5,,172.5,275,290,300,,300,472.5,BD,,4
Peter Cain,29,M,M-O,Raw,138,140,,,,,,300,325,-350,,325,325,D,,2
Frank Rodriguez #1,38,M,M-O,Raw,180.85,140+,200,220,-230,,220,300,330,350,,350,570,BD,,2
Matt Pullen,34,M,M-O,Raw,139.95,140,190,200,-205,,200,330,-350,-352.5,,330,530,BD,,3
Sam Solomi,32,M,M-O,Raw,145.05,140+,200,210,220,,220,310,340,-355,,340,560,BD,,3
Laurence Shahlaei,39,M,M-O,Raw,138.5,140,190,200,205,,205,325,340,355,,355,560,BD,,2
Tommy Bebb,28,M,M-O,Raw,141.1,140+,207.5,220,227.5,,227.5,320,345,355,,355,582.5,BD,,1
Delroy McQueen,46,M,M-O,Raw,118.85,125,,,,,,350,-375,375,,375,375,D,,1
Reece Fullwood,30,M,M-O,Raw,132.4,140,,,,,,325,-355,,,325,325,D,,1
Martyn O'Shea,31,M,M-O,Raw,126.1,140,220,230,240,,240,320,-340,,,320,560,BD,,1
Tom Linklater,37,M,M-O,Raw,130.2,140,190,205,-215,,205,,,,,,205,B,,1
Steve Macneil,37,M,M-O-E,Unlimited,161.85,140+,-390,-390,-390,,,,,,,,,B,,DQ
Jamie Chivers,51,M,M-M3,Raw,100.75,110,150,160,165,,165,180,200,215,,215,380,BD,,1
Ivan Parish,44,M,M-M1,Raw,107.3,110,100,125,130,,130,190,225,-242.5,,225,355,BD,,2
Ian Lewis,40,M,M-M1,Raw,96.15,100,107.5,112.5,-117.5,,112.5,227.5,232.5,240,,240,352.5,BD,,1
Ben Gillespie,20,M,M-J,Raw,93.05,100,130,135,140,,140,230,240,245,,245,385,BD,,1
Mark Woodruff,43,M,M-M1,Raw,125,125,140,150,-160,,150,230,245,255,,255,405,BD,,1
Rik Davison,61,M,M-M5-E,Multi-ply,100.5,110,,,,,,245,255,270,,270,270,D,,1
Gary Boulton,57,M,M-M4-E,Multi-ply,138.45,140,235,-247.5,-255,,235,260,287.5,-303,-303,287.5,522.5,BD,,1
Jamie Williams #3,20,M,M-J,Raw,137.1,140,,,,,,260,285,-300,,285,285,D,,1
Neil Elliott,50,M,M-M3-E,Multi-ply,122.5,125,180,-200,-250,,180,260,-280,,,260,440,BD,,1
Charlie Milnes,23,M,M-J,Raw,99.3,100,,,,,,275,300,-307.5,,300,300,D,,1
Matthew Fealey,41,M,M-M1,Raw,108.08,110,182.5,192.5,-200,,192.5,275,295,-310,,295,487.5,BD,,1
Chris Ackerman,23,M,M-J,Raw,122.1,125,190,200,-205,,200,-315,315,-335,,315,515,BD,,1
Martin Brown #1,41,M,M-M1,Raw,107.4,110,140,145,150,,150,,,,,,150,B,,2
Raman Saroy,20,M,M-J,Raw,95.85,100,160,170,175,,175,,,,,,175,B,,1
Richard Evans,54,M,M-M3-E,Multi-ply,164.8,140+,170,-180,-180,,170,,,,,,170,B,,1
Jerome Scherrer,41,M,M-M1,Raw,107.7,110,170,180,187.5,,187.5,,,,,,187.5,B,,1
Andrew Saunders,54,M,M-M3-E,Multi-ply,106.65,110,190,210,-240,,210,,,,,,210,B,,1
Robert Tattum,33,M,M-O,Raw,106.5,110,140,150,-160,,150,180,190,200,,200,350,BD,,4
Ryan Warburton,31,M,M-O,Raw,94.9,100,140,-155,155,,155,-200,-225,225,,225,380,BD,,1
Robert Ralph,33,M,M-O,Raw,108.2,110,,,,,,225,245,-255,,245,245,D,,1
Dan Jackson #2,38,M,M-O,Raw,91.3,100,120,130,135,,135,230,-240,,,230,365,BD,,2
Josh Cranfield,24,M,M-O,Raw,108.8,110,155,160,165,,165,247.5,257.5,265,,265,430,BD,,3
Jordan Weston,27,M,M-O,Raw,107.85,110,165,175,-185,,175,260,275,290,,290,465,BD,,2
Brett Brooks,29,M,M-O,Raw,122.85,125,130,140,150,,150,272.5,292.5,-300,,292.5,442.5,BD,,2
Jason Torche,36,M,M-O,Raw,101.2,110,190,205,-215,,205,290,-320,-335,,290,495,BD,,1
Liam Wheeler,29,M,M-O,Raw,122,125,182.5,-190,190,,190,300,320,-325,,320,510,BD,,1
Wylie Sung,34,M,M-O,Raw,99.5,100,,,,,,300,327.5,337.5,,337.5,337.5,D,,1
Mitchell Masterson,28,M,M-O,Raw,99.9,100,,,,,,307.5,327.5,-340,,327.5,327.5,D,,2
Ben Burton #1,26,M,M-O,Raw,96.55,100,170,180,190,,190,,,,,,190,B,,2
Bvinder Singh Barrah,24,M,M-O,Raw,96.85,100,185,195,-205,,195,,,,,,195,B,,1
Josh Cannon,35,M,M-O,Raw,117.25,125,220,-240,,,220,,,,,,220,B,,1
